<svg xmlns='http://www.w3.org/2000/svg' xmlns:xlink='http://www.w3.org/1999/xlink' width='100' height='50'>
	<defs>
		<g id='lines'>
			<line x1='0' y1='0' x2='20' y2='25' stroke-width='1' stroke='#f5f5f5'/>
			<line x1='15' y1='0' x2='35' y2='25' stroke-width='1' stroke='#fbfbfb'/>
			<line x1='30' y1='0' x2='50' y2='25' stroke-width='1' stroke='#f5f5f5'/>
		</g>
	</defs>
	<rect x='-10%' y='-10%' width='120%' height='120%' fill='#fff'/>
	<use xlink:href='#lines' x='50' y='25' />
	<use xlink:href='#lines' x='50' y='-25' transform='matrix(1 0 0 -1 0 0)'/>
	<use xlink:href='#lines'  />
	<use xlink:href='#lines' x='0' y='-50' transform='matrix(1 0 0 -1 0 0)'/>
</svg>
